<?xml version="1.0" encoding="iso-8859-1"?>
<!-- Generator: Adobe Illustrator 19.0.0, SVG Export Plug-In . SVG Version: 6.00 Build 0)  -->
<svg version="1.1" id="Capa_1" xmlns="http://www.w3.org/2000/svg" xmlns:xlink="http://www.w3.org/1999/xlink" x="0px" y="0px" fill="#ffffff"
	 viewBox="0 0 490.074 490.074" style="enable-background:new 0 0 490.074 490.074;" xml:space="preserve">
<path d="M479.792,345.621h-62.796V195.955c0-2.721-1.086-5.334-3.021-7.248L269.185,45.173c-1.914-1.9-4.496-2.961-7.188-2.961
	H73.153c-53.196,0-71.09,42.314-73.153,65.607v195.139c0,43.989,39.617,60.448,60.572,63.005c0.408,0.05,0.827,0.074,1.236,0.074
	h78.384c-0.288,2.644-0.447,5.326-0.447,8.045c0,40.683,33.087,73.781,73.761,73.781c40.694,0,73.801-33.097,73.801-73.781
	c0-2.719-0.159-5.401-0.447-8.045h192.93C493.502,366.037,493.502,345.621,479.792,345.621z M213.507,427.446
	c-29.418,0-53.345-23.941-53.345-53.364c0-29.423,23.926-53.365,53.345-53.365c29.439,0,53.385,23.942,53.385,53.365
	C266.892,403.506,242.946,427.446,213.507,427.446z M396.579,345.621H281.591c-11.165-26.593-37.476-45.32-68.083-45.32
	c-30.593,0-56.889,18.727-68.047,45.32H62.526c-5.225-0.803-42.109-7.712-42.109-42.663l-0.04-194.218
	c0.169-1.884,4.724-46.112,52.776-46.112H257.79l138.789,137.584V345.621z"/>
<path d="M137.903,95.068H69.634c-5.643,0-10.208,4.57-10.208,10.208v104.221c0,5.638,4.565,10.208,10.208,10.208h68.268
	c5.642,0,10.208-4.57,10.208-10.208V105.277C148.111,99.638,143.544,95.068,137.903,95.068z M127.694,199.289H79.842v-83.804h47.852
	V199.289z"/>
<path d="M230.326,95.068h-38.252c-5.642,0-10.209,4.57-10.209,10.208v104.221c0,5.638,4.566,10.208,10.209,10.208h138.511
	c0.079,0.005,0.159,0.01,0.199,0c8.347,0,14.947-10.368,6.052-18.432L237.683,98.198C235.758,96.199,233.096,95.068,230.326,95.068z
	 M202.282,199.289v-83.804h23.697l80.619,83.804H202.282z"/>
<g>
</g>
<g>
</g>
<g>
</g>
<g>
</g>
<g>
</g>
<g>
</g>
<g>
</g>
<g>
</g>
<g>
</g>
<g>
</g>
<g>
</g>
<g>
</g>
<g>
</g>
<g>
</g>
<g>
</g>
</svg>
