<?xml version="1.0" encoding="iso-8859-1"?>
<!-- Generator: Adobe Illustrator 19.0.0, SVG Export Plug-In . SVG Version: 6.00 Build 0)  -->
<svg version="1.1" id="Capa_1" xmlns="http://www.w3.org/2000/svg" xmlns:xlink="http://www.w3.org/1999/xlink" x="0px" y="0px" fill="#ffffff"
	 viewBox="0 0 490 490" style="enable-background:new 0 0 490 490;" xml:space="preserve">
<path d="M352.513,306.622c-28.527,0-79.484,13.439-79.484,40.21s50.957,40.21,79.484,40.21c29.108,0,43.254-13.154,43.254-40.21
	C395.768,319.776,381.621,306.622,352.513,306.622z M352.513,366.192c-28.508,0-57.559-13.352-58.638-19.303
	c1.079-6.064,30.131-19.415,58.638-19.415c21.319,0,22.403,7.355,22.403,19.359C374.917,358.836,373.832,366.192,352.513,366.192z"
	/>
<path d="M137.487,306.622c-29.108,0-43.255,13.154-43.255,40.21c0,27.056,14.146,40.21,43.255,40.21
	c28.527,0,79.484-13.439,79.484-40.21S166.014,306.622,137.487,306.622z M137.487,366.192c-21.319,0-22.404-7.355-22.404-19.359
	c0-12.004,1.084-19.359,22.404-19.359c28.508,0,57.559,13.352,58.638,19.303C195.046,352.84,165.994,366.192,137.487,366.192z"/>
<path d="M435.07,108.491C429.385,47.723,378.101,0,315.871,0H174.128C111.904,0,60.62,47.723,54.935,108.491H0v107.187h20.851
	v-86.336h33.552V369.76c0,31.072,24.452,56.536,55.126,58.161v15.79c0,25.524,20.764,46.288,46.288,46.288h1.384
	c25.525,0,46.289-20.764,46.289-46.288v-15.705h83.016v15.705c0,25.524,20.764,46.288,46.289,46.288h1.384
	c25.524,0,46.293-20.764,46.293-46.288v-15.791c30.672-1.627,55.126-27.091,55.126-58.161V129.342h33.547v86.336H490V108.491H435.07
	z M75.255,142.598c0-19.09,15.526-34.617,34.616-34.617h270.259c19.09,0,34.621,15.527,34.621,34.617v85.842
	c0,19.09-15.531,34.621-34.621,34.621H109.871c-19.09,0-34.616-15.531-34.616-34.621V142.598z M174.128,20.851h141.742
	c46.838,0,86.177,32.739,96.333,76.535c-9.06-6.451-20.127-10.255-32.074-10.255H109.871c-11.943,0-23.008,3.802-32.068,10.25
	C87.96,53.588,127.293,20.851,174.128,20.851z M182.641,443.712c0,14.024-11.414,25.437-25.438,25.437h-1.384
	c-14.024,0-25.437-11.413-25.437-25.437v-15.705h52.26V443.712z M334.182,469.149h-1.384c-14.024,0-25.438-11.413-25.438-25.437
	v-15.705h52.265v15.705C359.625,457.736,348.212,469.149,334.182,469.149z M377.355,407.155h-264.71
	c-20.618,0-37.39-16.773-37.39-37.395v-98.02c9.494,7.61,21.53,12.172,34.616,12.172h270.259c13.091,0,25.127-4.566,34.621-12.181
	v98.028C414.751,390.382,397.977,407.155,377.355,407.155z"/>
<g>
</g>
<g>
</g>
<g>
</g>
<g>
</g>
<g>
</g>
<g>
</g>
<g>
</g>
<g>
</g>
<g>
</g>
<g>
</g>
<g>
</g>
<g>
</g>
<g>
</g>
<g>
</g>
<g>
</g>
</svg>
