<svg xmlns="http://www.w3.org/2000/svg" width="10.75" height="6.156" viewBox="0 0 10.75 6.156" fill="#dbdbdb">
  <path d="M495.049,779.1h10.757v1.537H495.049V779.1Zm1.537,1.537h7.683v1.537h-7.683v-1.537Zm1.536,1.537h4.61v1.538h-4.61v-1.538Zm1.537,1.538H501.2v1.537h-1.536v-1.537Z" transform="translate(-495.063 -779.094)"/>
</svg>
